Final data project: Facebook trolling
…
# create Q1_num
data <- data %>% mutate(Q1_num=as.numeric(Q1)) 

# show unsuccessful conversions
invalid_ids <-  data %>% filter(is.na(Q1_num)) %>% pull(id)
data %>% filter(is.na(Q1_num)) %>% select(id,Q1,Q1_num)

## # A tibble: 57 x 3
##    id    Q1    Q1_num
##    <chr> <chr>  <dbl>
##  1 1     No        NA
##  2 2     No        NA
##  3 3     Yes       NA
##  4 4     Yes       NA
##  5 5     Yes       NA
##  6 6     Yes       NA
##  7 7     No        NA
##  8 8     Yes       NA
##  9 9     No        NA
## 10 10    No        NA
## # ... with 47 more rows
…
megaplot <- data %>% select(Q7,Q3_num, Q5_num, total_time)

print(megaplot)

## # A tibble: 31 x 4
##    Q7     Q3_num Q5_num total_time
##    <chr>   <dbl>  <dbl>      <dbl>
##  1 Female 11.0     2.50     27.5  
##  2 Female 11.0    60.0     660    
##  3 Female 11.0    12.5     138    
##  4 Male    1.00    0         0    
##  5 Male   11.0     0         0    
##  6 Male    0.140   2.50      0.350
##  7 Male    0       0         0    
##  8 Male   11.0    60.0     660    
##  9 Female  1.50    0         0    
## 10 Female  1.50   60.0      90.0  
## # ... with 21 more rows
…
# group by combinations and count
#megaplot %>% group_by(Q7) %>% count()

# set an id string that denotes the value combination
megaplot %>% mutate(id = factor(paste(Q3_num, Q5_num, total_time, Q7, sep = '-')))

## # A tibble: 31 x 5
##    Q7     Q3_num Q5_num total_time id                  
##    <chr>   <dbl>  <dbl>      <dbl> <fct>               
##  1 Female 11.0     2.50     27.5   11-2.5-27.5-Female  
##  2 Female 11.0    60.0     660     11-60-660-Female    
##  3 Female 11.0    12.5     138     11-12.5-137.5-Female
##  4 Male    1.00    0         0     1-0-0-Male          
##  5 Male   11.0     0         0     11-0-0-Male         
##  6 Male    0.140   2.50      0.350 0.14-2.5-0.35-Male  
##  7 Male    0       0         0     0-0-0-Male          
##  8 Male   11.0    60.0     660     11-60-660-Male      
##  9 Female  1.50    0         0     1.5-0-0-Female      
## 10 Female  1.50   60.0      90.0   1.5-60-90-Female    
## # ... with 21 more rows

megaplot2 <- megaplot %>% mutate(id = factor(paste(Q3_num, Q5_num, total_time, Q7, sep = '-')))

head(megaplot2, n=31)

## # A tibble: 31 x 5
##    Q7     Q3_num Q5_num total_time id                  
##    <chr>   <dbl>  <dbl>      <dbl> <fct>               
##  1 Female 11.0     2.50     27.5   11-2.5-27.5-Female  
##  2 Female 11.0    60.0     660     11-60-660-Female    
##  3 Female 11.0    12.5     138     11-12.5-137.5-Female
##  4 Male    1.00    0         0     1-0-0-Male          
##  5 Male   11.0     0         0     11-0-0-Male         
##  6 Male    0.140   2.50      0.350 0.14-2.5-0.35-Male  
##  7 Male    0       0         0     0-0-0-Male          
##  8 Male   11.0    60.0     660     11-60-660-Male      
##  9 Female  1.50    0         0     1.5-0-0-Female      
## 10 Female  1.50   60.0      90.0   1.5-60-90-Female    
## # ... with 21 more rows
…
